{
  "project_info": {
    "project_number": "372266975486",
    "firebase_url": "https://synerise-test-sender.firebaseio.com",
    "project_id": "synerise-test-sender",
    "storage_bucket": "synerise-test-sender.appspot.com"
  },
  "client": [
    {
      "client_info": {
        "mobilesdk_app_id": "1:372266975486:android:a1475ef42118e07c",
        "android_client_info": {
          "package_name": "com.synerise.synerise"
        }
      },
      "oauth_client": [
        {
          "client_id": "372266975486-qmqj0762d1q6ggb9f8ledenhb6inbb15.apps.googleusercontent.com",
          "client_type": 3
        }
      ],
      "api_key": [
        {
          "current_key": "AIzaSyAEQA_p34Nmdb6BhcDr312fqTidBS82H68"
        }
      ],
      "services": {
        "analytics_service": {
          "status": 1
        },
        "appinvite_service": {
          "status": 1,
          "other_platform_oauth_client": []
        },
        "ads_service": {
          "status": 2
        }
      }
    }
  ],
  "configuration_version": "1"
}